EESchema Schematic File Version 4
LIBS:taschenrechner-cache
EELAYER 30 0
EELAYER END
$Descr A4 11693 8268
encoding utf-8
Sheet 2 5
Title ""
Date ""
Rev ""
Comp ""
Comment1 ""
Comment2 ""
Comment3 ""
Comment4 ""
$EndDescr
$Comp
L Switch:SW_Push_45deg SW205
U 1 1 5DC3FBED
P 3000 4250
F 0 "SW205" H 3000 4531 50  0000 C CNN
F 1 "7" H 3000 4440 50  0000 C CNN
F 2 "" H 3000 4250 50  0001 C CNN
F 3 "~" H 3000 4250 50  0001 C CNN
	1    3000 4250
	1    0    0    -1  
$EndComp
$Comp
L Switch:SW_Push_45deg SW206
U 1 1 5DC40B2D
P 3000 4750
F 0 "SW206" H 3000 5031 50  0000 C CNN
F 1 "4" H 3000 4940 50  0000 C CNN
F 2 "" H 3000 4750 50  0001 C CNN
F 3 "~" H 3000 4750 50  0001 C CNN
	1    3000 4750
	1    0    0    -1  
$EndComp
$Comp
L Switch:SW_Push_45deg SW207
U 1 1 5DC41E8B
P 3000 5250
F 0 "SW207" H 3000 5531 50  0000 C CNN
F 1 "1" H 3000 5440 50  0000 C CNN
F 2 "" H 3000 5250 50  0001 C CNN
F 3 "~" H 3000 5250 50  0001 C CNN
	1    3000 5250
	1    0    0    -1  
$EndComp
$Comp
L Switch:SW_Push_45deg SW208
U 1 1 5DC41E91
P 3000 5750
F 0 "SW208" H 3000 6031 50  0000 C CNN
F 1 "0" H 3000 5940 50  0000 C CNN
F 2 "" H 3000 5750 50  0001 C CNN
F 3 "~" H 3000 5750 50  0001 C CNN
	1    3000 5750
	1    0    0    -1  
$EndComp
$Comp
L Switch:SW_Push_45deg SW213
U 1 1 5DC44D9B
P 3700 4250
F 0 "SW213" H 3700 4531 50  0000 C CNN
F 1 "8" H 3700 4440 50  0000 C CNN
F 2 "" H 3700 4250 50  0001 C CNN
F 3 "~" H 3700 4250 50  0001 C CNN
	1    3700 4250
	1    0    0    -1  
$EndComp
$Comp
L Switch:SW_Push_45deg SW214
U 1 1 5DC44DA1
P 3700 4750
F 0 "SW214" H 3700 5031 50  0000 C CNN
F 1 "5" H 3700 4940 50  0000 C CNN
F 2 "" H 3700 4750 50  0001 C CNN
F 3 "~" H 3700 4750 50  0001 C CNN
	1    3700 4750
	1    0    0    -1  
$EndComp
$Comp
L Switch:SW_Push_45deg SW215
U 1 1 5DC44DA7
P 3700 5250
F 0 "SW215" H 3700 5531 50  0000 C CNN
F 1 "2" H 3700 5440 50  0000 C CNN
F 2 "" H 3700 5250 50  0001 C CNN
F 3 "~" H 3700 5250 50  0001 C CNN
	1    3700 5250
	1    0    0    -1  
$EndComp
$Comp
L Switch:SW_Push_45deg SW216
U 1 1 5DC44DAD
P 3700 5750
F 0 "SW216" H 3700 6031 50  0000 C CNN
F 1 "DECIMAL" H 3700 5940 50  0000 C CNN
F 2 "" H 3700 5750 50  0001 C CNN
F 3 "~" H 3700 5750 50  0001 C CNN
	1    3700 5750
	1    0    0    -1  
$EndComp
$Comp
L Switch:SW_Push_45deg SW220
U 1 1 5DC46277
P 4400 4250
F 0 "SW220" H 4400 4531 50  0000 C CNN
F 1 "9" H 4400 4440 50  0000 C CNN
F 2 "" H 4400 4250 50  0001 C CNN
F 3 "~" H 4400 4250 50  0001 C CNN
	1    4400 4250
	1    0    0    -1  
$EndComp
$Comp
L Switch:SW_Push_45deg SW221
U 1 1 5DC4627D
P 4400 4750
F 0 "SW221" H 4400 5031 50  0000 C CNN
F 1 "6" H 4400 4940 50  0000 C CNN
F 2 "" H 4400 4750 50  0001 C CNN
F 3 "~" H 4400 4750 50  0001 C CNN
	1    4400 4750
	1    0    0    -1  
$EndComp
$Comp
L Switch:SW_Push_45deg SW222
U 1 1 5DC46283
P 4400 5250
F 0 "SW222" H 4400 5531 50  0000 C CNN
F 1 "3" H 4400 5440 50  0000 C CNN
F 2 "" H 4400 5250 50  0001 C CNN
F 3 "~" H 4400 5250 50  0001 C CNN
	1    4400 5250
	1    0    0    -1  
$EndComp
$Comp
L Switch:SW_Push_45deg SW223
U 1 1 5DC46289
P 4400 5750
F 0 "SW223" H 4400 6031 50  0000 C CNN
F 1 "x10^x" H 4400 5940 50  0000 C CNN
F 2 "" H 4400 5750 50  0001 C CNN
F 3 "~" H 4400 5750 50  0001 C CNN
	1    4400 5750
	1    0    0    -1  
$EndComp
$Comp
L Switch:SW_Push_45deg SW229
U 1 1 5DC481C3
P 5100 4750
F 0 "SW229" H 5100 5031 50  0000 C CNN
F 1 "MULT" H 5100 4940 50  0000 C CNN
F 2 "" H 5100 4750 50  0001 C CNN
F 3 "~" H 5100 4750 50  0001 C CNN
	1    5100 4750
	1    0    0    -1  
$EndComp
$Comp
L Switch:SW_Push_45deg SW230
U 1 1 5DC481C9
P 5100 5250
F 0 "SW230" H 5100 5531 50  0000 C CNN
F 1 "ADD" H 5100 5440 50  0000 C CNN
F 2 "" H 5100 5250 50  0001 C CNN
F 3 "~" H 5100 5250 50  0001 C CNN
	1    5100 5250
	1    0    0    -1  
$EndComp
$Comp
L Switch:SW_Push_45deg SW231
U 1 1 5DC481CF
P 5100 5750
F 0 "SW231" H 5100 6031 50  0000 C CNN
F 1 "ANS" H 5100 5940 50  0000 C CNN
F 2 "" H 5100 5750 50  0001 C CNN
F 3 "~" H 5100 5750 50  0001 C CNN
	1    5100 5750
	1    0    0    -1  
$EndComp
$Comp
L Switch:SW_Push_45deg SW228
U 1 1 5DC481BD
P 5100 4250
F 0 "SW228" H 5100 4531 50  0000 C CNN
F 1 "DEL" H 5100 4440 50  0000 C CNN
F 2 "" H 5100 4250 50  0001 C CNN
F 3 "~" H 5100 4250 50  0001 C CNN
	1    5100 4250
	1    0    0    -1  
$EndComp
$Comp
L Switch:SW_Push_45deg SW236
U 1 1 5DC4A5D3
P 5800 4250
F 0 "SW236" H 5800 4531 50  0000 C CNN
F 1 "CLR" H 5800 4440 50  0000 C CNN
F 2 "" H 5800 4250 50  0001 C CNN
F 3 "~" H 5800 4250 50  0001 C CNN
	1    5800 4250
	1    0    0    -1  
$EndComp
$Comp
L Switch:SW_Push_45deg SW237
U 1 1 5DC4A5D9
P 5800 4750
F 0 "SW237" H 5800 5031 50  0000 C CNN
F 1 "DIV" H 5800 4940 50  0000 C CNN
F 2 "" H 5800 4750 50  0001 C CNN
F 3 "~" H 5800 4750 50  0001 C CNN
	1    5800 4750
	1    0    0    -1  
$EndComp
$Comp
L Switch:SW_Push_45deg SW238
U 1 1 5DC4A5DF
P 5800 5250
F 0 "SW238" H 5800 5531 50  0000 C CNN
F 1 "SUB" H 5800 5440 50  0000 C CNN
F 2 "" H 5800 5250 50  0001 C CNN
F 3 "~" H 5800 5250 50  0001 C CNN
	1    5800 5250
	1    0    0    -1  
$EndComp
$Comp
L Switch:SW_Push_45deg SW239
U 1 1 5DC4A5E5
P 5800 5750
F 0 "SW239" H 5800 6031 50  0000 C CNN
F 1 "please" H 5800 5940 50  0000 C CNN
F 2 "" H 5800 5750 50  0001 C CNN
F 3 "~" H 5800 5750 50  0001 C CNN
	1    5800 5750
	1    0    0    -1  
$EndComp
Connection ~ 3100 4350
Wire Wire Line
	3100 4350 3800 4350
Connection ~ 3800 4350
Wire Wire Line
	3800 4350 4500 4350
Connection ~ 4500 4350
Wire Wire Line
	4500 4350 5200 4350
Connection ~ 5200 4350
Wire Wire Line
	5200 4350 5900 4350
Connection ~ 3100 4850
Wire Wire Line
	3100 4850 3800 4850
Connection ~ 3800 4850
Wire Wire Line
	3800 4850 4500 4850
Connection ~ 4500 4850
Wire Wire Line
	4500 4850 5200 4850
Connection ~ 5200 4850
Wire Wire Line
	5200 4850 5900 4850
Connection ~ 3100 5350
Wire Wire Line
	3100 5350 3800 5350
Connection ~ 3800 5350
Wire Wire Line
	3800 5350 4500 5350
Connection ~ 4500 5350
Wire Wire Line
	4500 5350 5200 5350
Connection ~ 5200 5350
Wire Wire Line
	5200 5350 5900 5350
Connection ~ 3100 5850
Wire Wire Line
	3100 5850 3800 5850
Connection ~ 3800 5850
Wire Wire Line
	3800 5850 4500 5850
Connection ~ 4500 5850
Wire Wire Line
	4500 5850 5200 5850
Connection ~ 5200 5850
Wire Wire Line
	5200 5850 5900 5850
Connection ~ 2900 4150
Wire Wire Line
	2900 4150 2900 4650
Connection ~ 2900 4650
Wire Wire Line
	2900 4650 2900 5150
Connection ~ 2900 5150
Wire Wire Line
	2900 5150 2900 5650
Connection ~ 2900 5650
Connection ~ 3600 4150
Wire Wire Line
	3600 4150 3600 4650
Connection ~ 3600 4650
Wire Wire Line
	3600 4650 3600 5150
Connection ~ 3600 5150
Wire Wire Line
	3600 5150 3600 5650
Connection ~ 3600 5650
Connection ~ 4300 4150
Wire Wire Line
	4300 4150 4300 4650
Connection ~ 4300 4650
Wire Wire Line
	4300 4650 4300 5150
Connection ~ 4300 5150
Wire Wire Line
	4300 5150 4300 5650
Connection ~ 4300 5650
Connection ~ 5000 4150
Connection ~ 5000 4650
Wire Wire Line
	5000 4650 5000 4150
Connection ~ 5000 5150
Wire Wire Line
	5000 5150 5000 4650
Connection ~ 5000 5650
Wire Wire Line
	5000 5650 5000 5150
Connection ~ 5700 4150
Wire Wire Line
	5700 4150 5700 4650
Connection ~ 5700 4650
Wire Wire Line
	5700 4650 5700 5150
Connection ~ 5700 5150
Wire Wire Line
	5700 5150 5700 5650
Connection ~ 5700 5650
$Comp
L Switch:SW_Push_45deg SW212
U 1 1 5DC5E5FA
P 3700 3650
F 0 "SW212" H 3700 3931 50  0000 C CNN
F 1 "10^3" H 3700 3840 50  0000 C CNN
F 2 "" H 3700 3650 50  0001 C CNN
F 3 "~" H 3700 3650 50  0001 C CNN
	1    3700 3650
	1    0    0    -1  
$EndComp
$Comp
L Switch:SW_Push_45deg SW219
U 1 1 5DC5EFA2
P 4400 3650
F 0 "SW219" H 4400 3931 50  0000 C CNN
F 1 "(" H 4400 3840 50  0000 C CNN
F 2 "" H 4400 3650 50  0001 C CNN
F 3 "~" H 4400 3650 50  0001 C CNN
	1    4400 3650
	1    0    0    -1  
$EndComp
$Comp
L Switch:SW_Push_45deg SW227
U 1 1 5DC5FA9E
P 5100 3650
F 0 "SW227" H 5100 3931 50  0000 C CNN
F 1 ")" H 5100 3840 50  0000 C CNN
F 2 "" H 5100 3650 50  0001 C CNN
F 3 "~" H 5100 3650 50  0001 C CNN
	1    5100 3650
	1    0    0    -1  
$EndComp
$Comp
L Switch:SW_Push_45deg SW235
U 1 1 5DC6103D
P 5800 3650
F 0 "SW235" H 5800 3931 50  0000 C CNN
F 1 "decimal/fraction" H 5800 3840 50  0000 C CNN
F 2 "" H 5800 3650 50  0001 C CNN
F 3 "~" H 5800 3650 50  0001 C CNN
	1    5800 3650
	1    0    0    -1  
$EndComp
$Comp
L Switch:SW_Push_45deg SW204
U 1 1 5DC5E094
P 3000 3650
F 0 "SW204" H 3000 3931 50  0000 C CNN
F 1 "STORE" H 3000 3840 50  0000 C CNN
F 2 "" H 3000 3650 50  0001 C CNN
F 3 "~" H 3000 3650 50  0001 C CNN
	1    3000 3650
	1    0    0    -1  
$EndComp
$Comp
L Switch:SW_Push_45deg SW203
U 1 1 5DC639AA
P 3000 3050
F 0 "SW203" H 3000 3331 50  0000 C CNN
F 1 "^-1" H 3000 3240 50  0000 C CNN
F 2 "" H 3000 3050 50  0001 C CNN
F 3 "~" H 3000 3050 50  0001 C CNN
	1    3000 3050
	1    0    0    -1  
$EndComp
$Comp
L Switch:SW_Push_45deg SW211
U 1 1 5DC64253
P 3700 3050
F 0 "SW211" H 3700 3331 50  0000 C CNN
F 1 "sin" H 3700 3240 50  0000 C CNN
F 2 "" H 3700 3050 50  0001 C CNN
F 3 "~" H 3700 3050 50  0001 C CNN
	1    3700 3050
	1    0    0    -1  
$EndComp
$Comp
L Switch:SW_Push_45deg SW218
U 1 1 5DC64708
P 4400 3050
F 0 "SW218" H 4400 3331 50  0000 C CNN
F 1 "cos" H 4400 3240 50  0000 C CNN
F 2 "" H 4400 3050 50  0001 C CNN
F 3 "~" H 4400 3050 50  0001 C CNN
	1    4400 3050
	1    0    0    -1  
$EndComp
$Comp
L Switch:SW_Push_45deg SW224
U 1 1 5DC64BD2
P 5100 3050
F 0 "SW224" H 5100 3331 50  0000 C CNN
F 1 "tan" H 5100 3240 50  0000 C CNN
F 2 "" H 5100 3050 50  0001 C CNN
F 3 "~" H 5100 3050 50  0001 C CNN
	1    5100 3050
	1    0    0    -1  
$EndComp
$Comp
L Switch:SW_Push_45deg SW234
U 1 1 5DC65AA0
P 5800 3050
F 0 "SW234" H 5800 3331 50  0000 C CNN
F 1 "log" H 5800 3240 50  0000 C CNN
F 2 "" H 5800 3050 50  0001 C CNN
F 3 "~" H 5800 3050 50  0001 C CNN
	1    5800 3050
	1    0    0    -1  
$EndComp
$Comp
L Switch:SW_Push_45deg SW233
U 1 1 5DC66087
P 5800 2450
F 0 "SW233" H 5800 2731 50  0000 C CNN
F 1 "ln" H 5800 2640 50  0000 C CNN
F 2 "" H 5800 2450 50  0001 C CNN
F 3 "~" H 5800 2450 50  0001 C CNN
	1    5800 2450
	1    0    0    -1  
$EndComp
$Comp
L Switch:SW_Push_45deg SW226
U 1 1 5DC667AB
P 5100 2450
F 0 "SW226" H 5100 2731 50  0000 C CNN
F 1 "x^y" H 5100 2640 50  0000 C CNN
F 2 "" H 5100 2450 50  0001 C CNN
F 3 "~" H 5100 2450 50  0001 C CNN
	1    5100 2450
	1    0    0    -1  
$EndComp
$Comp
L Switch:SW_Push_45deg SW217
U 1 1 5DC66EB3
P 4400 2450
F 0 "SW217" H 4400 2731 50  0000 C CNN
F 1 "x^2" H 4400 2640 50  0000 C CNN
F 2 "" H 4400 2450 50  0001 C CNN
F 3 "~" H 4400 2450 50  0001 C CNN
	1    4400 2450
	1    0    0    -1  
$EndComp
$Comp
L Switch:SW_Push_45deg SW210
U 1 1 5DC67913
P 3700 2450
F 0 "SW210" H 3700 2731 50  0000 C CNN
F 1 "sqrt" H 3700 2640 50  0000 C CNN
F 2 "" H 3700 2450 50  0001 C CNN
F 3 "~" H 3700 2450 50  0001 C CNN
	1    3700 2450
	1    0    0    -1  
$EndComp
$Comp
L Switch:SW_Push_45deg SW202
U 1 1 5DC6C011
P 3000 2450
F 0 "SW202" H 3000 2731 50  0000 C CNN
F 1 "fraction" H 3000 2640 50  0000 C CNN
F 2 "" H 3000 2450 50  0001 C CNN
F 3 "~" H 3000 2450 50  0001 C CNN
	1    3000 2450
	1    0    0    -1  
$EndComp
$Comp
L Switch:SW_Push_45deg SW201
U 1 1 5DC810E7
P 3000 1850
F 0 "SW201" H 3000 2131 50  0000 C CNN
F 1 "shift" H 3000 2040 50  0000 C CNN
F 2 "" H 3000 1850 50  0001 C CNN
F 3 "~" H 3000 1850 50  0001 C CNN
	1    3000 1850
	1    0    0    -1  
$EndComp
$Comp
L Switch:SW_Push_45deg SW209
U 1 1 5DC8416F
P 3700 1850
F 0 "SW209" H 3700 2131 50  0000 C CNN
F 1 "opt" H 3700 2040 50  0000 C CNN
F 2 "" H 3700 1850 50  0001 C CNN
F 3 "~" H 3700 1850 50  0001 C CNN
	1    3700 1850
	1    0    0    -1  
$EndComp
$Comp
L Switch:SW_Push_45deg SW232
U 1 1 5DC89F48
P 5800 1850
F 0 "SW232" H 5800 2131 50  0000 C CNN
F 1 "on" H 5800 2040 50  0000 C CNN
F 2 "" H 5800 1850 50  0001 C CNN
F 3 "~" H 5800 1850 50  0001 C CNN
	1    5800 1850
	1    0    0    -1  
$EndComp
$Comp
L Switch:SW_Push_45deg SW225
U 1 1 5DC8A53C
P 5100 1850
F 0 "SW225" H 5100 2131 50  0000 C CNN
F 1 "menu" H 5100 2040 50  0000 C CNN
F 2 "" H 5100 1850 50  0001 C CNN
F 3 "~" H 5100 1850 50  0001 C CNN
	1    5100 1850
	1    0    0    -1  
$EndComp
$Comp
L Switch:SW_Push_45deg SW?
U 1 1 5DCD9BFE
P 3000 1300
F 0 "SW?" H 3000 1581 50  0000 C CNN
F 1 "<-" H 3000 1490 50  0000 C CNN
F 2 "" H 3000 1300 50  0001 C CNN
F 3 "~" H 3000 1300 50  0001 C CNN
	1    3000 1300
	1    0    0    -1  
$EndComp
$Comp
L Switch:SW_Push_45deg SW?
U 1 1 5DCD9C04
P 3700 1300
F 0 "SW?" H 3700 1581 50  0000 C CNN
F 1 "^" H 3700 1490 50  0000 C CNN
F 2 "" H 3700 1300 50  0001 C CNN
F 3 "~" H 3700 1300 50  0001 C CNN
	1    3700 1300
	1    0    0    -1  
$EndComp
$Comp
L Switch:SW_Push_45deg SW?
U 1 1 5DCD9C0A
P 5800 1300
F 0 "SW?" H 5800 1581 50  0000 C CNN
F 1 "->" H 5800 1490 50  0000 C CNN
F 2 "" H 5800 1300 50  0001 C CNN
F 3 "~" H 5800 1300 50  0001 C CNN
	1    5800 1300
	1    0    0    -1  
$EndComp
$Comp
L Switch:SW_Push_45deg SW?
U 1 1 5DCD9C10
P 5100 1300
F 0 "SW?" H 5100 1581 50  0000 C CNN
F 1 "v" H 5100 1490 50  0000 C CNN
F 2 "" H 5100 1300 50  0001 C CNN
F 3 "~" H 5100 1300 50  0001 C CNN
	1    5100 1300
	1    0    0    -1  
$EndComp
Wire Wire Line
	2900 1150 2900 1200
Connection ~ 2900 1200
Wire Wire Line
	2900 1200 2900 1750
Connection ~ 2900 1750
Wire Wire Line
	2900 1750 2900 2350
Connection ~ 2900 2350
Wire Wire Line
	2900 2350 2900 2950
Connection ~ 2900 2950
Wire Wire Line
	2900 2950 2900 3550
Connection ~ 2900 3550
Wire Wire Line
	2900 3550 2900 4150
Wire Wire Line
	3600 1150 3600 1200
Connection ~ 3600 1200
Wire Wire Line
	3600 1200 3600 1750
Connection ~ 3600 1750
Wire Wire Line
	3600 1750 3600 2350
Connection ~ 3600 2350
Wire Wire Line
	3600 2350 3600 2950
Connection ~ 3600 2950
Wire Wire Line
	3600 2950 3600 3550
Connection ~ 3600 3550
Wire Wire Line
	3600 3550 3600 4150
Wire Wire Line
	4300 1150 4300 2350
Connection ~ 4300 2350
Wire Wire Line
	4300 2350 4300 2950
Connection ~ 4300 2950
Wire Wire Line
	4300 2950 4300 3550
Connection ~ 4300 3550
Wire Wire Line
	4300 3550 4300 4150
Wire Wire Line
	5000 1150 5000 1200
Connection ~ 5000 1200
Wire Wire Line
	5000 1200 5000 1750
Connection ~ 5000 1750
Wire Wire Line
	5000 1750 5000 2350
Connection ~ 5000 2350
Wire Wire Line
	5000 2350 5000 2950
Connection ~ 5000 2950
Wire Wire Line
	5000 2950 5000 3550
Connection ~ 5000 3550
Wire Wire Line
	5000 3550 5000 4150
Wire Wire Line
	5700 1200 5700 1750
Connection ~ 5700 1750
Wire Wire Line
	5700 1750 5700 2350
Connection ~ 5700 2350
Wire Wire Line
	5700 2350 5700 2950
Connection ~ 5700 2950
Wire Wire Line
	5700 2950 5700 3550
Connection ~ 5700 3550
Wire Wire Line
	5700 3550 5700 4150
Connection ~ 3100 3750
Wire Wire Line
	3100 3750 3800 3750
Connection ~ 3800 3750
Wire Wire Line
	3800 3750 4500 3750
Connection ~ 4500 3750
Wire Wire Line
	4500 3750 5200 3750
Connection ~ 5200 3750
Wire Wire Line
	5200 3750 5900 3750
Connection ~ 3100 3150
Wire Wire Line
	3100 3150 3800 3150
Connection ~ 3800 3150
Wire Wire Line
	3800 3150 4500 3150
Connection ~ 4500 3150
Wire Wire Line
	4500 3150 5200 3150
Connection ~ 5200 3150
Wire Wire Line
	5200 3150 5900 3150
Connection ~ 3100 2550
Wire Wire Line
	3100 2550 3800 2550
Connection ~ 3800 2550
Wire Wire Line
	3800 2550 4500 2550
Connection ~ 4500 2550
Wire Wire Line
	4500 2550 5200 2550
Connection ~ 5200 2550
Wire Wire Line
	5200 2550 5900 2550
Connection ~ 3100 1950
Wire Wire Line
	3100 1950 3800 1950
Connection ~ 3800 1950
Wire Wire Line
	3800 1950 5200 1950
Connection ~ 5200 1950
Wire Wire Line
	5200 1950 5900 1950
Connection ~ 3100 1400
Wire Wire Line
	3100 1400 3800 1400
Connection ~ 3800 1400
Wire Wire Line
	3800 1400 5200 1400
Connection ~ 5200 1400
Wire Wire Line
	5200 1400 5900 1400
Text GLabel 1900 1400 0    50   Input ~ 0
KY1
Text GLabel 1900 1950 0    50   Input ~ 0
KY2
Text GLabel 1900 2550 0    50   Input ~ 0
KY3
Text GLabel 1900 3150 0    50   Input ~ 0
KY4
Text GLabel 1900 3750 0    50   Input ~ 0
KY5
Text GLabel 1900 4350 0    50   Input ~ 0
KY6
Text GLabel 1900 4850 0    50   Input ~ 0
KY7
Text GLabel 1900 5350 0    50   Input ~ 0
KY8
Text GLabel 1900 5850 0    50   Input ~ 0
KY9
Text GLabel 2900 6500 3    50   Input ~ 0
KX1
Text GLabel 3600 6500 3    50   Input ~ 0
KX2
Text GLabel 4300 6500 3    50   Input ~ 0
KX3
Text GLabel 5000 6500 3    50   Input ~ 0
KX4
Wire Wire Line
	5900 1400 5950 1400
Connection ~ 5900 1400
Wire Wire Line
	5900 1950 5950 1950
Connection ~ 5900 1950
Wire Wire Line
	5900 2550 5950 2550
Connection ~ 5900 2550
Wire Wire Line
	5900 3150 5950 3150
Connection ~ 5900 3150
Wire Wire Line
	5900 3750 5950 3750
Connection ~ 5900 3750
Wire Wire Line
	5900 4350 5950 4350
Connection ~ 5900 4350
Wire Wire Line
	5900 4850 5950 4850
Connection ~ 5900 4850
Wire Wire Line
	5900 5350 5950 5350
Connection ~ 5900 5350
Wire Wire Line
	5900 5850 5950 5850
Connection ~ 5900 5850
Text GLabel 5700 6500 3    50   Input ~ 0
KX5
Wire Wire Line
	1900 1400 3100 1400
Wire Wire Line
	1900 1950 3100 1950
Wire Wire Line
	1900 2550 3100 2550
Wire Wire Line
	1900 3150 3100 3150
Wire Wire Line
	1900 3750 3100 3750
Wire Wire Line
	1900 4350 3100 4350
Wire Wire Line
	1900 4850 3100 4850
Wire Wire Line
	1900 5350 3100 5350
Wire Wire Line
	1900 5850 3100 5850
Wire Wire Line
	2900 5650 2900 6500
Wire Wire Line
	3600 5650 3600 6500
Wire Wire Line
	4300 5650 4300 6500
Wire Wire Line
	5000 5650 5000 6500
Wire Wire Line
	5700 5650 5700 6500
Wire Wire Line
	5700 1200 5700 1150
Connection ~ 5700 1200
$EndSCHEMATC
